…
    ## Rows: 32906 Columns: 4
    ## ── Column specification ────────────────────────────────────────────────────────
    ## Delimiter: ","
    ## chr  (1): application_number
    ## dbl  (2): ego_examiner_id, alter_examiner_id
    ## date (1): advice_date
    ## 
    ## ℹ Use `spec()` to retrieve the full column specification for this data.
    ## ℹ Specify the column types or set `show_col_types = FALSE` to quiet this message.

``` r
applications
```

    ## # A tibble: 2,018,477 × 16
    ##    application_number filing_date examiner_name_last examiner_name_first
    ##    <chr>              <date>      <chr>              <chr>              
    ##  1 08284457           2000-01-26  HOWARD             JACQUELINE         
    ##  2 08413193           2000-10-11  YILDIRIM           BEKIR              
    ##  3 08531853           2000-05-17  HAMILTON           CYNTHIA            
    ##  4 08637752           2001-07-20  MOSHER             MARY               
    ##  5 08682726           2000-04-10  BARR               MICHAEL            
    ##  6 08687412           2000-04-28  GRAY               LINDA              
    ##  7 08716371           2004-01-26  MCMILLIAN          KARA               
    ##  8 08765941           2000-06-23  FORD               VANESSA            
    ##  9 08776818           2000-02-04  STRZELECKA         TERESA             
    ## 10 08809677           2002-02-20  KIM                SUN                
    ## # … with 2,018,467 more rows, and 12 more variables:
    ## #   examiner_name_middle <chr>, examiner_id <dbl>, examiner_art_unit <dbl>,
    ## #   uspc_class <chr>, uspc_subclass <chr>, patent_number <chr>,
    ## #   patent_issue_date <date>, abandon_date <date>, disposal_type <chr>,
    ## #   appl_status_code <dbl>, appl_status_date <chr>, tc <dbl>

``` r
edges
```

    ## # A tibble: 32,906 × 4
    ##    application_number advice_date ego_examiner_id alter_examiner_id
    ##    <chr>              <date>                <dbl>             <dbl>
    ##  1 09402488           2008-11-17            84356             66266
    ##  2 09402488           2008-11-17            84356             63519
    ##  3 09402488           2008-11-17            84356             98531
    ##  4 09445135           2008-08-21            92953             71313
    ##  5 09445135           2008-08-21            92953             93865
    ##  6 09445135           2008-08-21            92953             91818
    ##  7 09479304           2008-12-15            61767             69277
    ##  8 09479304           2008-12-15            61767             92446
    ##  9 09479304           2008-12-15            61767             66805
    ## 10 09479304           2008-12-15            61767             70919
    ## # … with 32,896 more rows

## add the following variables for examiners: Gender, Race, Tenure

## Gender

``` r
# get a list of first names without repetitions
# get a list of first names without repetitions
examiner_names <- applications %>% 
  distinct(examiner_name_first)

examiner_names
```

    ## # A tibble: 2,595 × 1
    ##    examiner_name_first
    ##    <chr>              
    ##  1 JACQUELINE         
    ##  2 BEKIR              
    ##  3 CYNTHIA            
    ##  4 MARY               
    ##  5 MICHAEL            
    ##  6 LINDA              
    ##  7 KARA               
    ##  8 VANESSA            
    ##  9 TERESA             
    ## 10 SUN                
    ## # … with 2,585 more rows
``` r
# get a table of names and gender
examiner_names_gender <- examiner_names %>% 
  do(results = gender(.$examiner_name_first, method = "ssa")) %>% 
  unnest(cols = c(results), keep_empty = TRUE) %>% 
  select(
    examiner_name_first = name,
    gender,
    proportion_female
  )

examiner_names_gender
```

    ## # A tibble: 1,822 × 3
    ##    examiner_name_first gender proportion_female
    ##    <chr>               <chr>              <dbl>
    ##  1 AARON               male              0.0082
    ##  2 ABDEL               male              0     
    ##  3 ABDOU               male              0     
    ##  4 ABDUL               male              0     
    ##  5 ABDULHAKIM          male              0     
    ##  6 ABDULLAH            male              0     
    ##  7 ABDULLAHI           male              0     
    ##  8 ABIGAIL             female            0.998 
    ##  9 ABIMBOLA            female            0.944 
    ## 10 ABRAHAM             male              0.0031
    ## # … with 1,812 more rows
…
# cleaning up
rm(examiner_names)
rm(examiner_names_gender)
gc()
```

    ##            used  (Mb) gc trigger  (Mb) limit (Mb) max used  (Mb)
    ## Ncells  4609408 246.2    7916501 422.8         NA  5013086 267.8
    ## Vcells 49826912 380.2   95803343 731.0      16384 80142720 611.5

``` r
applications
```

    ## # A tibble: 2,018,477 × 17
    ##    application_number filing_date examiner_name_last examiner_name_first
    ##    <chr>              <date>      <chr>              <chr>              
    ##  1 08284457           2000-01-26  HOWARD             JACQUELINE         
    ##  2 08413193           2000-10-11  YILDIRIM           BEKIR              
    ##  3 08531853           2000-05-17  HAMILTON           CYNTHIA            
    ##  4 08637752           2001-07-20  MOSHER             MARY               
    ##  5 08682726           2000-04-10  BARR               MICHAEL            
    ##  6 08687412           2000-04-28  GRAY               LINDA              
    ##  7 08716371           2004-01-26  MCMILLIAN          KARA               
    ##  8 08765941           2000-06-23  FORD               VANESSA            
    ##  9 08776818           2000-02-04  STRZELECKA         TERESA             
    ## 10 08809677           2002-02-20  KIM                SUN                
    ## # … with 2,018,467 more rows, and 13 more variables:
    ## #   examiner_name_middle <chr>, examiner_id <dbl>, examiner_art_unit <dbl>,
    ## #   uspc_class <chr>, uspc_subclass <chr>, patent_number <chr>,
    ## #   patent_issue_date <date>, abandon_date <date>, disposal_type <chr>,
    ## #   appl_status_code <dbl>, appl_status_date <chr>, tc <dbl>, gender <chr>

## Race

``` r
library(wru)

examiner_surnames <- applications %>% 
  select(surname = examiner_name_last) %>% 
  distinct()

examiner_surnames
```

    ## # A tibble: 3,806 × 1
    ##    surname   
    ##    <chr>     
    ##  1 HOWARD    
    ##  2 YILDIRIM  
    ##  3 HAMILTON  
    ##  4 MOSHER    
    ##  5 BARR      
    ##  6 GRAY      
    ##  7 MCMILLIAN 
    ##  8 FORD      
    ##  9 STRZELECKA
    ## 10 KIM       
    ## # … with 3,796 more rows
``` r
examiner_race <- predict_race(voter.file = examiner_surnames, surname.only = T) %>% 
  as_tibble()
```

    ## [1] "Proceeding with surname-only predictions..."

    ## Warning in merge_surnames(voter.file): Probabilities were imputed for 698
    ## surnames that could not be matched to Census list.

``` r
examiner_race
```

    ## # A tibble: 3,806 × 6
    ##    surname    pred.whi pred.bla pred.his pred.asi pred.oth
    ##    <chr>         <dbl>    <dbl>    <dbl>    <dbl>    <dbl>
    ##  1 HOWARD       0.643   0.295    0.0237   0.005     0.0333
    ##  2 YILDIRIM     0.861   0.0271   0.0609   0.0135    0.0372
    ##  3 HAMILTON     0.702   0.237    0.0245   0.0054    0.0309
    ##  4 MOSHER       0.947   0.00410  0.0241   0.00640   0.0185
    ##  5 BARR         0.827   0.117    0.0226   0.00590   0.0271
    ##  6 GRAY         0.687   0.251    0.0241   0.0054    0.0324
    ##  7 MCMILLIAN    0.359   0.574    0.0189   0.00260   0.0463
    ##  8 FORD         0.620   0.32     0.0237   0.0045    0.0313
    ##  9 STRZELECKA   0.666   0.0853   0.137    0.0797    0.0318
    ## 10 KIM          0.0252  0.00390  0.00650  0.945     0.0198
    ## # … with 3,796 more rows
…
examiner_race
```

    ## # A tibble: 3,806 × 8
    ##    surname    pred.whi pred.bla pred.his pred.asi pred.oth max_race_p race 
    ##    <chr>         <dbl>    <dbl>    <dbl>    <dbl>    <dbl>      <dbl> <chr>
    ##  1 HOWARD       0.643   0.295    0.0237   0.005     0.0333      0.643 white
    ##  2 YILDIRIM     0.861   0.0271   0.0609   0.0135    0.0372      0.861 white
    ##  3 HAMILTON     0.702   0.237    0.0245   0.0054    0.0309      0.702 white
    ##  4 MOSHER       0.947   0.00410  0.0241   0.00640   0.0185      0.947 white
    ##  5 BARR         0.827   0.117    0.0226   0.00590   0.0271      0.827 white
    ##  6 GRAY         0.687   0.251    0.0241   0.0054    0.0324      0.687 white
    ##  7 MCMILLIAN    0.359   0.574    0.0189   0.00260   0.0463      0.574 black
    ##  8 FORD         0.620   0.32     0.0237   0.0045    0.0313      0.620 white
    ##  9 STRZELECKA   0.666   0.0853   0.137    0.0797    0.0318      0.666 white
    ## 10 KIM          0.0252  0.00390  0.00650  0.945     0.0198      0.945 Asian
    ## # … with 3,796 more rows
…
rm(examiner_race)
rm(examiner_surnames)
gc()
```

    ##            used  (Mb) gc trigger  (Mb) limit (Mb) max used  (Mb)
    ## Ncells  5024145 268.4    7916501 422.8         NA  7916501 422.8
    ## Vcells 53623557 409.2   95803343 731.0      16384 94813642 723.4

``` r
applications
```

    ## # A tibble: 2,018,477 × 18
    ##    application_number filing_date examiner_name_last examiner_name_first
    ##    <chr>              <date>      <chr>              <chr>              
    ##  1 08284457           2000-01-26  HOWARD             JACQUELINE         
    ##  2 08413193           2000-10-11  YILDIRIM           BEKIR              
    ##  3 08531853           2000-05-17  HAMILTON           CYNTHIA            
    ##  4 08637752           2001-07-20  MOSHER             MARY               
    ##  5 08682726           2000-04-10  BARR               MICHAEL            
    ##  6 08687412           2000-04-28  GRAY               LINDA              
    ##  7 08716371           2004-01-26  MCMILLIAN          KARA               
    ##  8 08765941           2000-06-23  FORD               VANESSA            
    ##  9 08776818           2000-02-04  STRZELECKA         TERESA             
    ## 10 08809677           2002-02-20  KIM                SUN                
    ## # … with 2,018,467 more rows, and 14 more variables:
    ## #   examiner_name_middle <chr>, examiner_id <dbl>, examiner_art_unit <dbl>,
    ## #   uspc_class <chr>, uspc_subclass <chr>, patent_number <chr>,
    ## #   patent_issue_date <date>, abandon_date <date>, disposal_type <chr>,
    ## #   appl_status_code <dbl>, appl_status_date <chr>, tc <dbl>, gender <chr>,
    ## #   race <chr>
…
    ## The following objects are masked from 'package:base':
    ## 
    ##     date, intersect, setdiff, union

``` r
examiner_dates <- applications %>% 
  select(examiner_id, filing_date, appl_status_date) 

examiner_dates
```

    ## # A tibble: 2,018,477 × 3
    ##    examiner_id filing_date appl_status_date  
    ##          <dbl> <date>      <chr>             
    ##  1       96082 2000-01-26  30jan2003 00:00:00
    ##  2       87678 2000-10-11  27sep2010 00:00:00
    ##  3       63213 2000-05-17  30mar2009 00:00:00
    ##  4       73788 2001-07-20  07sep2009 00:00:00
    ##  5       77294 2000-04-10  19apr2001 00:00:00
    ##  6       68606 2000-04-28  16jul2001 00:00:00
    ##  7       89557 2004-01-26  15may2017 00:00:00
    ##  8       97543 2000-06-23  03apr2002 00:00:00
    ##  9       98714 2000-02-04  27nov2002 00:00:00
    ## 10       65530 2002-02-20  23mar2009 00:00:00
    ## # … with 2,018,467 more rows
…
``` r
examiner_dates <- examiner_dates %>% 
  group_by(examiner_id) %>% 
  summarise(
    earliest_date = min(start_date, na.rm = TRUE), 
    latest_date = max(end_date, na.rm = TRUE),
    tenure_days = interval(earliest_date, latest_date) %/% days(1)
    ) %>% 
  filter(year(latest_date)<2018)

examiner_dates
```

    ## # A tibble: 5,625 × 4
    ##    examiner_id earliest_date latest_date tenure_days
    ##          <dbl> <date>        <date>            <dbl>
    ##  1       59012 2004-07-28    2015-07-24         4013
    ##  2       59025 2009-10-26    2017-05-18         2761
    ##  3       59030 2005-12-12    2017-05-22         4179
    ##  4       59040 2007-09-11    2017-05-23         3542
    ##  5       59052 2001-08-21    2007-02-28         2017
    ##  6       59054 2000-11-10    2016-12-23         5887
    ##  7       59055 2004-11-02    2007-12-26         1149
    ##  8       59056 2000-03-24    2017-05-22         6268
    ##  9       59074 2000-01-31    2017-03-17         6255
    ## 10       59081 2011-04-21    2017-05-19         2220
    ## # … with 5,615 more rows
…
rm(examiner_dates)
gc()
```

    ##            used  (Mb) gc trigger   (Mb) limit (Mb)  max used   (Mb)
    ## Ncells  5038046 269.1   14286492  763.0         NA  14286492  763.0
    ## Vcells 66002027 503.6  138132813 1053.9      16384 137952626 1052.5

``` r
applications
```

    ## # A tibble: 2,018,477 × 21
    ##    application_number filing_date examiner_name_last examiner_name_first
    ##    <chr>              <date>      <chr>              <chr>              
    ##  1 08284457           2000-01-26  HOWARD             JACQUELINE         
    ##  2 08413193           2000-10-11  YILDIRIM           BEKIR              
    ##  3 08531853           2000-05-17  HAMILTON           CYNTHIA            
    ##  4 08637752           2001-07-20  MOSHER             MARY               
    ##  5 08682726           2000-04-10  BARR               MICHAEL            
    ##  6 08687412           2000-04-28  GRAY               LINDA              
    ##  7 08716371           2004-01-26  MCMILLIAN          KARA               
    ##  8 08765941           2000-06-23  FORD               VANESSA            
    ##  9 08776818           2000-02-04  STRZELECKA         TERESA             
    ## 10 08809677           2002-02-20  KIM                SUN                
    ## # … with 2,018,467 more rows, and 17 more variables:
    ## #   examiner_name_middle <chr>, examiner_id <dbl>, examiner_art_unit <dbl>,
    ## #   uspc_class <chr>, uspc_subclass <chr>, patent_number <chr>,
    ## #   patent_issue_date <date>, abandon_date <date>, disposal_type <chr>,
    ## #   appl_status_code <dbl>, appl_status_date <chr>, tc <dbl>, gender <chr>,
    ## #   race <chr>, earliest_date <date>, latest_date <date>, tenure_days <dbl>
…
``` r
first_examiner
```

    ## # A tibble: 919 × 21
    ##    application_number filing_date examiner_name_last examiner_name_first
    ##    <chr>              <date>      <chr>              <chr>              
    ##  1 10205302           2002-07-26  CHUNG              SUSANNAH           
    ##  2 10256326           2002-09-27  CHUNG              SUSANNAH           
    ##  3 10289794           2002-11-07  CHUNG              SUSANNAH           
    ##  4 10332645           2004-01-30  CHUNG              SUSANNAH           
    ##  5 10343125           2003-01-28  CHUNG              SUSANNAH           
    ##  6 10344722           2003-12-10  CHUNG              SUSANNAH           
    ##  7 10371343           2003-02-20  CHUNG              SUSANNAH           
    ##  8 10382203           2003-03-05  CHUNG              SUSANNAH           
    ##  9 10391685           2003-03-18  CHUNG              SUSANNAH           
    ## 10 10394758           2003-03-21  CHUNG              SUSANNAH           
    ## # … with 909 more rows, and 17 more variables: examiner_name_middle <chr>,
    ## #   examiner_id <dbl>, examiner_art_unit <dbl>, uspc_class <chr>,
    ## #   uspc_subclass <chr>, patent_number <chr>, patent_issue_date <date>,
    ## #   abandon_date <date>, disposal_type <chr>, appl_status_code <dbl>,
    ## #   appl_status_date <chr>, tc <dbl>, gender <chr>, race <chr>,
    ## #   earliest_date <date>, latest_date <date>, tenure_days <dbl>

``` r
second_examiner
```

    ## # A tibble: 1,202 × 21
    ##    application_number filing_date examiner_name_last examiner_name_first
    ##    <chr>              <date>      <chr>              <chr>              
    ##  1 09155146           2000-02-03  WOODWARD           ANA                
    ##  2 09486745           2000-03-01  WOODWARD           ANA                
    ##  3 09487205           2000-01-19  WOODWARD           ANA                
    ##  4 09489786           2000-01-24  WOODWARD           ANA                
    ##  5 09496870           2000-02-02  WOODWARD           ANA                
    ##  6 09502249           2000-02-17  WOODWARD           ANA                
    ##  7 09507496           2000-02-18  WOODWARD           ANA                
    ##  8 09509623           2000-03-29  WOODWARD           ANA                
    ##  9 09516099           2000-03-01  WOODWARD           ANA                
    ## 10 09521535           2000-03-08  WOODWARD           ANA                
    ## # … with 1,192 more rows, and 17 more variables: examiner_name_middle <chr>,
    ## #   examiner_id <dbl>, examiner_art_unit <dbl>, uspc_class <chr>,
    ## #   uspc_subclass <chr>, patent_number <chr>, patent_issue_date <date>,
    ## #   abandon_date <date>, disposal_type <chr>, appl_status_code <dbl>,
    ## #   appl_status_date <chr>, tc <dbl>, gender <chr>, race <chr>,
    ## #   earliest_date <date>, latest_date <date>, tenure_days <dbl>
…
